Hooded sprayer studies in Missouri, Nebraska and Wisconsin
…
data <- missouri %>% 
  bind_rows(nebraska) %>% 
  bind_rows(wisconsin) %>% 
  janitor::clean_names() %>% 
  rename(deposition = n_l_cm2) %>% 
  mutate_if(is_character, as_factor) %>% 
  mutate(block = as_factor(block)) %>% 
  mutate(distance_m = replace_na(distance_m, 0)) %>% 
  mutate(distance_log = log10(distance_m),
         deposition_log = log10(deposition)) 

data 

## # A tibble: 2,915 x 12
##    date                 pass block solution sprayer nozzle distance_m deposition
##    <dttm>              <dbl> <fct> <fct>    <fct>   <fct>       <dbl>      <dbl>
##  1 2020-09-18 00:00:00     1 1     Intact   Open    AIXR            1     5.03  
##  2 2020-09-18 00:00:00     1 1     Intact   Open    AIXR            2     1.62  
##  3 2020-09-18 00:00:00     1 1     Intact   Open    AIXR            3     2.05  
##  4 2020-09-18 00:00:00     1 1     Intact   Open    AIXR            4     1.70  
##  5 2020-09-18 00:00:00     1 1     Intact   Open    AIXR            8     1.26  
##  6 2020-09-18 00:00:00     1 1     Intact   Open    AIXR           16     0.268 
##  7 2020-09-18 00:00:00     1 1     Intact   Open    AIXR           30     0.0936
##  8 2020-09-18 00:00:00     1 1     Intact   Open    AIXR           45     0.0716
##  9 2020-09-18 00:00:00     1 1     Intact   Open    AIXR           60     0.0531
## 10 2020-09-18 00:00:00     2 1     Intact   Open    ULD             1     4.94  
## #  with 2,905 more rows, and 4 more variables: type <fct>, location <fct>,
## #   distance_log <dbl>, deposition_log <dbl>
…
Arrange dataset

data_dw1 <- data_dw %>% 
  group_by(location, solution, sprayer, nozzle) %>% 
  nest()

data_dw1

## # A tibble: 30 x 5
## # Groups:   solution, sprayer, nozzle, location [30]
##    solution sprayer nozzle location data             
##    <fct>    <fct>   <fct>  <fct>    <list>           
##  1 Intact   Open    AIXR   missouri <tibble [81  8]>
##  2 Intact   Open    ULD    missouri <tibble [81  8]>
##  3 Intact   Open    TTI    missouri <tibble [81  8]>
##  4 Intact   Hood    ULD    missouri <tibble [90  8]>
##  5 Intact   Hood    TTI    missouri <tibble [90  8]>
##  6 Intact   Hood    AIXR   missouri <tibble [90  8]>
##  7 Intact   Open    AIXR   nebraska <tibble [81  8]>
##  8 Intact   Open    ULD    nebraska <tibble [81  8]>
##  9 Intact   Open    TTI    nebraska <tibble [81  8]>
## 10 Intact   Hood    ULD    nebraska <tibble [81  8]>
## #  with 20 more rows
…
params <- data_dw2 %>% 
  unnest(summary) %>% 
  filter(effect == "fixed") %>% 
  mutate(estimate_exp = exp(estimate)) %>% 
  dplyr::select(location, solution, sprayer, nozzle, term, estimate, std.error, statistic, p.value, estimate_exp) %>% 
  mutate(p.value = round(p.value, 3)) %>% 
  mutate(term = fct_recode(term,
                           "slope" = "log10(distance_m)"),
         term = fct_recode(term,
                           "Intercept" = "(Intercept)")) %>% 
  unite("trt", c("solution", "sprayer", "nozzle"), sep = " ", remove = FALSE)

params

## # A tibble: 60 x 11
## # Groups:   solution, sprayer, nozzle, location [30]
##    location trt   solution sprayer nozzle term  estimate std.error statistic
##    <fct>    <chr> <fct>    <fct>   <fct>  <fct>    <dbl>     <dbl>     <dbl>
##  1 missouri Inta Intact   Open    AIXR   Inte  0.837      0.0785   10.7   
##  2 missouri Inta Intact   Open    AIXR   slope -1.31       0.0424  -31.0   
##  3 missouri Inta Intact   Open    ULD    Inte  0.527      0.0982    5.36  
##  4 missouri Inta Intact   Open    ULD    slope -1.14       0.0368  -31.0   
##  5 missouri Inta Intact   Open    TTI    Inte  0.221      0.0875    2.53  
##  6 missouri Inta Intact   Open    TTI    slope -1.06       0.0350  -30.3   
##  7 missouri Inta Intact   Hood    ULD    Inte  0.0822     0.0733    1.12  
##  8 missouri Inta Intact   Hood    ULD    slope -0.875      0.0474  -18.5   
##  9 missouri Inta Intact   Hood    TTI    Inte -0.00290    0.0785   -0.0370
## 10 missouri Inta Intact   Hood    TTI    slope -0.853      0.0403  -21.2   
## #  with 50 more rows, and 2 more variables: p.value <dbl>, estimate_exp <dbl>
…
